lab 9
…
report_03_24_2020 %>% 
  filter(Country.Region == "China") %>%
  group_by(Province.State) %>% 
  summarise(Deaths = sum(Deaths)) %>% 
  arrange(desc(Deaths))

## # A tibble: 33 x 2
##    Province.State Deaths
##    <chr>           <dbl>
##  1 Hubei            3160
##  2 Henan              22
##  3 Heilongjiang       13
##  4 Beijing             8
##  5 Guangdong           8
##  6 Shandong            7
##  7 Anhui               6
##  8 Chongqing           6
##  9 Hainan              6
## 10 Hebei               6
## #  with 23 more rows
…
